dump.vcd
$date
	Fri Mar 29 21:31:44 2019
$end
$version
	Icarus Verilog
$end
$timescale
	1s
$end
$scope module dut_tb $end
$var wire 16 ! \m2[0] [15:0] $end
$upscope $end
$scope module dut_tb $end
$var wire 16 " \m2[1] [15:0] $end
$upscope $end
$scope module dut_tb $end
$var wire 16 # \m2[2] [15:0] $end
$upscope $end
$scope module dut_tb $end
$var wire 16 $ \m2[3] [15:0] $end
$upscope $end
$scope module dut_tb $end
$var wire 4 % valid_m2 [3:0] $end
$var wire 3 & row_m1 [2:0] $end
$var wire 1 ' row_m0 $end
$var wire 4 ( rd_en_m1_pipe [3:0] $end
$var wire 4 ) rd_en_m0_pipe [3:0] $end
$var wire 1 * column_m1 $end
$var wire 3 + column_m0 [2:0] $end
$var reg 1 , clk $end
$var reg 32 - counter_finish [31:0] $end
$var reg 1 . enable_row_count_m0 $end
$var reg 1 / init $end
$var reg 32 0 patch [31:0] $end
$var reg 1 1 rd_en_m0 $end
$var reg 1 2 rd_en_m1 $end
$var reg 2 3 rst [1:0] $end
$var reg 3 4 rst_pe [2:0] $end
$scope begin genblk1[0] $end
$upscope $end
$scope begin genblk1[1] $end
$upscope $end
$scope begin genblk1[2] $end
$upscope $end
$scope begin genblk1[3] $end
$upscope $end
$scope begin genblk2[0] $end
$upscope $end
$scope begin genblk2[1] $end
$upscope $end
$scope begin genblk2[2] $end
$upscope $end
$scope begin genblk2[3] $end
$upscope $end
$scope begin genblk3[0] $end
$scope begin genblk4[0] $end
$scope module pipe_inst_rst $end
$var wire 1 , clk $end
$var wire 1 5 in_p $end
$var wire 1 6 out_p $end
$var wire 1 7 rst $end
$upscope $end
$upscope $end
$scope begin genblk4[1] $end
$scope module pipe_inst_rst $end
$var wire 1 , clk $end
$var wire 1 8 in_p $end
$var wire 1 9 out_p $end
$var wire 1 : rst $end
$scope begin genblk1[1] $end
$upscope $end
$upscope $end
$upscope $end
$scope begin genblk4[2] $end
$scope module pipe_inst_rst $end
$var wire 1 , clk $end
$var wire 1 ; in_p $end
$var wire 1 < out_p $end
$var wire 1 = rst $end
$scope begin genblk1[1] $end
$upscope $end
$scope begin genblk1[2] $end
$upscope $end
$upscope $end
$upscope $end
$scope begin genblk4[3] $end
$scope module pipe_inst_rst $end
$var wire 1 , clk $end
$var wire 1 > in_p $end
$var wire 1 ? out_p $end
$var wire 1 @ rst $end
$scope begin genblk1[1] $end
$upscope $end
$scope begin genblk1[2] $end
$upscope $end
$scope begin genblk1[3] $end
$upscope $end
$upscope $end
$upscope $end
$upscope $end
$scope begin genblk3[1] $end
$scope begin genblk4[0] $end
$scope module pipe_inst_rst $end
$var wire 1 , clk $end
$var wire 1 A in_p $end
$var wire 1 B out_p $end
$var wire 1 C rst $end
$scope begin genblk1[1] $end
$upscope $end
$upscope $end
$upscope $end
$scope begin genblk4[1] $end
$scope module pipe_inst_rst $end
$var wire 1 , clk $end
$var wire 1 D in_p $end
$var wire 1 E out_p $end
$var wire 1 F rst $end
$scope begin genblk1[1] $end
$upscope $end
$scope begin genblk1[2] $end
$upscope $end
$upscope $end
$upscope $end
$scope begin genblk4[2] $end
$scope module pipe_inst_rst $end
$var wire 1 , clk $end
$var wire 1 G in_p $end
$var wire 1 H out_p $end
$var wire 1 I rst $end
$scope begin genblk1[1] $end
$upscope $end
$scope begin genblk1[2] $end
$upscope $end
$scope begin genblk1[3] $end
$upscope $end
$upscope $end
$upscope $end
$scope begin genblk4[3] $end
$scope module pipe_inst_rst $end
$var wire 1 , clk $end
$var wire 1 J in_p $end
$var wire 1 K out_p $end
$var wire 1 L rst $end
$scope begin genblk1[1] $end
$upscope $end
$scope begin genblk1[2] $end
$upscope $end
$scope begin genblk1[3] $end
$upscope $end
$scope begin genblk1[4] $end
$upscope $end
$upscope $end
$upscope $end
$upscope $end
$scope begin genblk3[2] $end
$scope begin genblk4[0] $end
$scope module pipe_inst_rst $end
$var wire 1 , clk $end
$var wire 1 M in_p $end
$var wire 1 N out_p $end
$var wire 1 O rst $end
$scope begin genblk1[1] $end
$upscope $end
$scope begin genblk1[2] $end
$upscope $end
$upscope $end
$upscope $end
$scope begin genblk4[1] $end
$scope module pipe_inst_rst $end
$var wire 1 , clk $end
$var wire 1 P in_p $end
$var wire 1 Q out_p $end
$var wire 1 R rst $end
$scope begin genblk1[1] $end
$upscope $end
$scope begin genblk1[2] $end
$upscope $end
$scope begin genblk1[3] $end
$upscope $end
$upscope $end
$upscope $end
$scope begin genblk4[2] $end
$scope module pipe_inst_rst $end
$var wire 1 , clk $end
$var wire 1 S in_p $end
$var wire 1 T out_p $end
$var wire 1 U rst $end
$scope begin genblk1[1] $end
$upscope $end
$scope begin genblk1[2] $end
$upscope $end
$scope begin genblk1[3] $end
$upscope $end
$scope begin genblk1[4] $end
$upscope $end
$upscope $end
$upscope $end
$scope begin genblk4[3] $end
$scope module pipe_inst_rst $end
$var wire 1 , clk $end
$var wire 1 V in_p $end
$var wire 1 W out_p $end
$var wire 1 X rst $end
$scope begin genblk1[1] $end
$upscope $end
$scope begin genblk1[2] $end
$upscope $end
$scope begin genblk1[3] $end
$upscope $end
$scope begin genblk1[4] $end
$upscope $end
$scope begin genblk1[5] $end
$upscope $end
$upscope $end
$upscope $end
$upscope $end
$scope begin genblk3[3] $end
$scope begin genblk4[0] $end
$scope module pipe_inst_rst $end
$var wire 1 , clk $end
$var wire 1 Y in_p $end
$var wire 1 Z out_p $end
$var wire 1 [ rst $end
$scope begin genblk1[1] $end
$upscope $end
$scope begin genblk1[2] $end
$upscope $end
$scope begin genblk1[3] $end
$upscope $end
$upscope $end
$upscope $end
$scope begin genblk4[1] $end
$scope module pipe_inst_rst $end
$var wire 1 , clk $end
$var wire 1 \ in_p $end
$var wire 1 ] out_p $end
$var wire 1 ^ rst $end
$scope begin genblk1[1] $end
$upscope $end
$scope begin genblk1[2] $end
$upscope $end
$scope begin genblk1[3] $end
$upscope $end
$scope begin genblk1[4] $end
$upscope $end
$upscope $end
$upscope $end
$scope begin genblk4[2] $end
$scope module pipe_inst_rst $end
$var wire 1 , clk $end
$var wire 1 _ in_p $end
$var wire 1 ` out_p $end
$var wire 1 a rst $end
$scope begin genblk1[1] $end
$upscope $end
$scope begin genblk1[2] $end
$upscope $end
$scope begin genblk1[3] $end
$upscope $end
$scope begin genblk1[4] $end
$upscope $end
$scope begin genblk1[5] $end
$upscope $end
$upscope $end
$upscope $end
$scope begin genblk4[3] $end
$scope module pipe_inst_rst $end
$var wire 1 , clk $end
$var wire 1 b in_p $end
$var wire 1 c out_p $end
$var wire 1 d rst $end
$scope begin genblk1[1] $end
$upscope $end
$scope begin genblk1[2] $end
$upscope $end
$scope begin genblk1[3] $end
$upscope $end
$scope begin genblk1[4] $end
$upscope $end
$scope begin genblk1[5] $end
$upscope $end
$scope begin genblk1[6] $end
$upscope $end
$upscope $end
$upscope $end
$upscope $end
$scope begin genblk5[0] $end
$upscope $end
$scope begin genblk5[1] $end
$upscope $end
$scope begin genblk5[2] $end
$upscope $end
$scope begin genblk5[3] $end
$upscope $end
$scope begin genblk6[0] $end
$upscope $end
$scope begin genblk6[1] $end
$upscope $end
$scope begin genblk6[2] $end
$upscope $end
$scope begin genblk6[3] $end
$upscope $end
$scope module mem_read_m0_inst $end
$var wire 1 , clk $end
$var wire 1 e rd_en $end
$var wire 1 ' row $end
$var wire 4 f rd_en_bram [3:0] $end
$var wire 3 g column [2:0] $end
$var wire 32 h address [31:0] $end
$var reg 4 i rd_en_bram_reg [3:0] $end
$scope begin genblk1[1] $end
$upscope $end
$scope begin genblk1[2] $end
$upscope $end
$scope begin genblk1[3] $end
$upscope $end
$upscope $end
$scope module mem_read_m1_inst $end
$var wire 1 , clk $end
$var wire 1 j rd_en $end
$var wire 3 k row [2:0] $end
$var wire 4 l rd_en_bram [3:0] $end
$var wire 1 * column $end
$var wire 32 m address [31:0] $end
$var reg 4 n rd_en_bram_reg [3:0] $end
$scope begin genblk1[1] $end
$upscope $end
$scope begin genblk1[2] $end
$upscope $end
$scope begin genblk1[3] $end
$upscope $end
$upscope $end
$scope module systolic_dut $end
$var wire 1 , clk $end
$var wire 1 . enable_row_count_m0 $end
$var wire 1 o rst $end
$var wire 4 p valid_m2 [3:0] $end
$var wire 3 q row_m1 [2:0] $end
$var wire 1 ' row_m0 $end
$var wire 1 * column_m1 $end
$var wire 3 r column_m0 [2:0] $end
$var reg 7 s delay [6:0] $end
$var reg 1 t init_val $end
$var reg 1 u valid_stop $end
$var integer 32 v diag [31:0] $end
$var integer 32 w i [31:0] $end
$var integer 32 x j [31:0] $end
$var integer 32 y k [31:0] $end
$var integer 32 z x [31:0] $end
$scope begin genblk1[0] $end
$upscope $end
$scope begin genblk1[1] $end
$upscope $end
$scope begin genblk1[2] $end
$upscope $end
$scope begin genblk1[3] $end
$upscope $end
$scope begin genblk2[0] $end
$scope begin genblk3[0] $end
$scope module pe_inst $end
$var wire 1 , clk $end
$var wire 8 { in_a [7:0] $end
$var wire 8 | in_b [7:0] $end
$var wire 16 } in_data [15:0] $end
$var wire 1 ~ in_valid $end
$var wire 1 !" init $end
$var wire 1 o rst $end
$var reg 16 "" data [15:0] $end
$var reg 8 #" out_a [7:0] $end
$var reg 8 $" out_b [7:0] $end
$var reg 16 %" out_data [15:0] $end
$var reg 1 &" out_valid $end
$var reg 16 '" sum [15:0] $end
$var reg 1 (" valid $end
$upscope $end
$upscope $end
$scope begin genblk3[1] $end
$scope module pe_inst $end
$var wire 1 , clk $end
$var wire 8 )" in_a [7:0] $end
$var wire 8 *" in_b [7:0] $end
$var wire 16 +" in_data [15:0] $end
$var wire 1 &" in_valid $end
$var wire 1 ," init $end
$var wire 1 o rst $end
$var reg 16 -" data [15:0] $end
$var reg 8 ." out_a [7:0] $end
$var reg 8 /" out_b [7:0] $end
$var reg 16 0" out_data [15:0] $end
$var reg 1 1" out_valid $end
$var reg 16 2" sum [15:0] $end
$var reg 1 3" valid $end
$upscope $end
$upscope $end
$scope begin genblk3[2] $end
$scope module pe_inst $end
$var wire 1 , clk $end
$var wire 8 4" in_a [7:0] $end
$var wire 8 5" in_b [7:0] $end
$var wire 16 6" in_data [15:0] $end
$var wire 1 1" in_valid $end
$var wire 1 7" init $end
$var wire 1 o rst $end
$var reg 16 8" data [15:0] $end
$var reg 8 9" out_a [7:0] $end
$var reg 8 :" out_b [7:0] $end
$var reg 16 ;" out_data [15:0] $end
$var reg 1 <" out_valid $end
$var reg 16 =" sum [15:0] $end
$var reg 1 >" valid $end
$upscope $end
$upscope $end
$scope begin genblk3[3] $end
$scope module pe_inst $end
$var wire 1 , clk $end
$var wire 8 ?" in_a [7:0] $end
$var wire 8 @" in_b [7:0] $end
$var wire 16 A" in_data [15:0] $end
$var wire 1 <" in_valid $end
$var wire 1 B" init $end
$var wire 1 o rst $end
$var reg 16 C" data [15:0] $end
$var reg 8 D" out_a [7:0] $end
$var reg 8 E" out_b [7:0] $end
$var reg 16 F" out_data [15:0] $end
$var reg 1 G" out_valid $end
$var reg 16 H" sum [15:0] $end
$var reg 1 I" valid $end
$upscope $end
$upscope $end
$upscope $end
$scope begin genblk2[1] $end
$scope begin genblk3[0] $end
$scope module pe_inst $end
$var wire 1 , clk $end
$var wire 8 J" in_a [7:0] $end
$var wire 8 K" in_b [7:0] $end
$var wire 16 L" in_data [15:0] $end
$var wire 1 M" in_valid $end
$var wire 1 N" init $end
$var wire 1 o rst $end
$var reg 16 O" data [15:0] $end
$var reg 8 P" out_a [7:0] $end
$var reg 8 Q" out_b [7:0] $end
$var reg 16 R" out_data [15:0] $end
$var reg 1 S" out_valid $end
$var reg 16 T" sum [15:0] $end
$var reg 1 U" valid $end
$upscope $end
$upscope $end
$scope begin genblk3[1] $end
$scope module pe_inst $end
$var wire 1 , clk $end
$var wire 8 V" in_a [7:0] $end
$var wire 8 W" in_b [7:0] $end
$var wire 16 X" in_data [15:0] $end
$var wire 1 S" in_valid $end
$var wire 1 Y" init $end
$var wire 1 o rst $end
$var reg 16 Z" data [15:0] $end
$var reg 8 [" out_a [7:0] $end
$var reg 8 \" out_b [7:0] $end
$var reg 16 ]" out_data [15:0] $end
$var reg 1 ^" out_valid $end
$var reg 16 _" sum [15:0] $end
$var reg 1 `" valid $end
$upscope $end
$upscope $end
$scope begin genblk3[2] $end
$scope module pe_inst $end
$var wire 1 , clk $end
$var wire 8 a" in_a [7:0] $end
$var wire 8 b" in_b [7:0] $end
$var wire 16 c" in_data [15:0] $end
$var wire 1 ^" in_valid $end
$var wire 1 d" init $end
$var wire 1 o rst $end
$var reg 16 e" data [15:0] $end
$var reg 8 f" out_a [7:0] $end
$var reg 8 g" out_b [7:0] $end
$var reg 16 h" out_data [15:0] $end
$var reg 1 i" out_valid $end
$var reg 16 j" sum [15:0] $end
$var reg 1 k" valid $end
$upscope $end
$upscope $end
$scope begin genblk3[3] $end
$scope module pe_inst $end
$var wire 1 , clk $end
$var wire 8 l" in_a [7:0] $end
$var wire 8 m" in_b [7:0] $end
$var wire 16 n" in_data [15:0] $end
$var wire 1 i" in_valid $end
$var wire 1 o" init $end
$var wire 1 o rst $end
$var reg 16 p" data [15:0] $end
$var reg 8 q" out_a [7:0] $end
$var reg 8 r" out_b [7:0] $end
$var reg 16 s" out_data [15:0] $end
$var reg 1 t" out_valid $end
$var reg 16 u" sum [15:0] $end
$var reg 1 v" valid $end
$upscope $end
$upscope $end
$upscope $end
$scope begin genblk2[2] $end
$scope begin genblk3[0] $end
$scope module pe_inst $end
$var wire 1 , clk $end
$var wire 8 w" in_a [7:0] $end
$var wire 8 x" in_b [7:0] $end
$var wire 16 y" in_data [15:0] $end
$var wire 1 z" in_valid $end
$var wire 1 {" init $end
$var wire 1 o rst $end
$var reg 16 |" data [15:0] $end
$var reg 8 }" out_a [7:0] $end
$var reg 8 ~" out_b [7:0] $end
$var reg 16 !# out_data [15:0] $end
$var reg 1 "# out_valid $end
$var reg 16 ## sum [15:0] $end
$var reg 1 $# valid $end
$upscope $end
$upscope $end
$scope begin genblk3[1] $end
$scope module pe_inst $end
$var wire 1 , clk $end
$var wire 8 %# in_a [7:0] $end
$var wire 8 &# in_b [7:0] $end
$var wire 16 '# in_data [15:0] $end
$var wire 1 "# in_valid $end
$var wire 1 (# init $end
$var wire 1 o rst $end
$var reg 16 )# data [15:0] $end
$var reg 8 *# out_a [7:0] $end
$var reg 8 +# out_b [7:0] $end
$var reg 16 ,# out_data [15:0] $end
$var reg 1 -# out_valid $end
$var reg 16 .# sum [15:0] $end
$var reg 1 /# valid $end
$upscope $end
$upscope $end
$scope begin genblk3[2] $end
$scope module pe_inst $end
$var wire 1 , clk $end
$var wire 8 0# in_a [7:0] $end
$var wire 8 1# in_b [7:0] $end
$var wire 16 2# in_data [15:0] $end
$var wire 1 -# in_valid $end
$var wire 1 3# init $end
$var wire 1 o rst $end
$var reg 16 4# data [15:0] $end
$var reg 8 5# out_a [7:0] $end
$var reg 8 6# out_b [7:0] $end
$var reg 16 7# out_data [15:0] $end
$var reg 1 8# out_valid $end
$var reg 16 9# sum [15:0] $end
$var reg 1 :# valid $end
$upscope $end
$upscope $end
$scope begin genblk3[3] $end
$scope module pe_inst $end
$var wire 1 , clk $end
$var wire 8 ;# in_a [7:0] $end
$var wire 8 <# in_b [7:0] $end
$var wire 16 =# in_data [15:0] $end
$var wire 1 8# in_valid $end
$var wire 1 ># init $end
$var wire 1 o rst $end
$var reg 16 ?# data [15:0] $end
$var reg 8 @# out_a [7:0] $end
$var reg 8 A# out_b [7:0] $end
$var reg 16 B# out_data [15:0] $end
$var reg 1 C# out_valid $end
$var reg 16 D# sum [15:0] $end
$var reg 1 E# valid $end
$upscope $end
$upscope $end
$upscope $end
$scope begin genblk2[3] $end
$scope begin genblk3[0] $end
$scope module pe_inst $end
$var wire 1 , clk $end
$var wire 8 F# in_a [7:0] $end
$var wire 8 G# in_b [7:0] $end
$var wire 16 H# in_data [15:0] $end
$var wire 1 I# in_valid $end
$var wire 1 J# init $end
$var wire 1 o rst $end
$var reg 16 K# data [15:0] $end
$var reg 8 L# out_a [7:0] $end
$var reg 8 M# out_b [7:0] $end
$var reg 16 N# out_data [15:0] $end
$var reg 1 O# out_valid $end
$var reg 16 P# sum [15:0] $end
$var reg 1 Q# valid $end
$upscope $end
$upscope $end
$scope begin genblk3[1] $end
$scope module pe_inst $end
$var wire 1 , clk $end
$var wire 8 R# in_a [7:0] $end
$var wire 8 S# in_b [7:0] $end
$var wire 16 T# in_data [15:0] $end
$var wire 1 O# in_valid $end
$var wire 1 U# init $end
$var wire 1 o rst $end
$var reg 16 V# data [15:0] $end
$var reg 8 W# out_a [7:0] $end
$var reg 8 X# out_b [7:0] $end
$var reg 16 Y# out_data [15:0] $end
$var reg 1 Z# out_valid $end
$var reg 16 [# sum [15:0] $end
$var reg 1 \# valid $end
$upscope $end
$upscope $end
$scope begin genblk3[2] $end
$scope module pe_inst $end
$var wire 1 , clk $end
$var wire 8 ]# in_a [7:0] $end
$var wire 8 ^# in_b [7:0] $end
$var wire 16 _# in_data [15:0] $end
$var wire 1 Z# in_valid $end
$var wire 1 `# init $end
$var wire 1 o rst $end
$var reg 16 a# data [15:0] $end
$var reg 8 b# out_a [7:0] $end
$var reg 8 c# out_b [7:0] $end
$var reg 16 d# out_data [15:0] $end
$var reg 1 e# out_valid $end
$var reg 16 f# sum [15:0] $end
$var reg 1 g# valid $end
$upscope $end
$upscope $end
$scope begin genblk3[3] $end
$scope module pe_inst $end
$var wire 1 , clk $end
$var wire 8 h# in_a [7:0] $end
$var wire 8 i# in_b [7:0] $end
$var wire 16 j# in_data [15:0] $end
$var wire 1 e# in_valid $end
$var wire 1 k# init $end
$var wire 1 o rst $end
$var reg 16 l# data [15:0] $end
$var reg 8 m# out_a [7:0] $end
$var reg 8 n# out_b [7:0] $end
$var reg 16 o# out_data [15:0] $end
$var reg 1 p# out_valid $end
$var reg 16 q# sum [15:0] $end
$var reg 1 r# valid $end
$upscope $end
$upscope $end
$upscope $end
$scope begin genblk4[0] $end
$upscope $end
$scope begin genblk4[1] $end
$upscope $end
$scope begin genblk4[2] $end
$upscope $end
$scope begin genblk4[3] $end
$upscope $end
$scope module counter_m0 $end
$var wire 1 , clk $end
$var wire 1 . enable_row_count $end
$var wire 1 o rst $end
$var wire 1 s# flag $end
$var reg 3 t# column_counter [2:0] $end
$var reg 1 ' row_counter $end
$upscope $end
$scope module counter_m1 $end
$var wire 1 , clk $end
$var wire 1 u# enable_row_count $end
$var wire 1 o rst $end
$var wire 1 v# flag $end
$var reg 3 w# column_counter [2:0] $end
$var reg 1 * row_counter $end
$upscope $end
$upscope $end
$upscope $end
$enddefinitions $end
#0
$dumpvars
bx w#
xv#
1u#
bx t#
xs#
xr#
bx q#
xp#
bx o#
bx n#
bx m#
bx l#
xk#
bx j#
bx i#
bx h#
xg#
bx f#
xe#
bx d#
bx c#
bx b#
bx a#
x`#
bx _#
bx ^#
bx ]#
x\#
bx [#
xZ#
bx Y#
bx X#
bx W#
bx V#
xU#
bx T#
bx S#
bx R#
xQ#
bx P#
xO#
bx N#
bx M#
bx L#
bx K#
xJ#
0I#
b0 H#
bx G#
bx F#
xE#
bx D#
xC#
bx B#
bx A#
bx @#
bx ?#
x>#
bx =#
bx <#
bx ;#
x:#
bx 9#
x8#
bx 7#
bx 6#
bx 5#
bx 4#
x3#
bx 2#
bx 1#
bx 0#
x/#
bx .#
x-#
bx ,#
bx +#
bx *#
bx )#
x(#
bx '#
bx &#
bx %#
x$#
bx ##
x"#
bx !#
bx ~"
bx }"
bx |"
x{"
0z"
b0 y"
bx x"
bx w"
xv"
bx u"
xt"
bx s"
bx r"
bx q"
bx p"
xo"
bx n"
bx m"
bx l"
xk"
bx j"
xi"
bx h"
bx g"
bx f"
bx e"
xd"
bx c"
bx b"
bx a"
x`"
bx _"
x^"
bx ]"
bx \"
bx ["
bx Z"
xY"
bx X"
bx W"
bx V"
xU"
bx T"
xS"
bx R"
bx Q"
bx P"
bx O"
xN"
0M"
b0 L"
bx K"
bx J"
xI"
bx H"
xG"
bx F"
bx E"
bx D"
bx C"
xB"
bx A"
bx @"
bx ?"
x>"
bx ="
x<"
bx ;"
bx :"
bx 9"
bx 8"
x7"
bx 6"
bx 5"
bx 4"
x3"
bx 2"
x1"
bx 0"
bx /"
bx ."
bx -"
x,"
bx +"
bx *"
bx )"
x("
bx '"
x&"
bx %"
bx $"
bx #"
bx ""
x!"
0~
b0 }
bx |
bx {
bx z
bx y
bx x
bx w
b100 v
xu
xt
bx s
bx r
bx q
bx p
1o
bx n
bx m
bx0 l
bx k
0j
bx i
bx h
bx g
bx0 f
0e
zd
xc
0b
za
x`
0_
z^
x]
0\
z[
xZ
0Y
zX
xW
0V
zU
xT
0S
zR
xQ
0P
zO
xN
0M
zL
xK
0J
zI
xH
0G
zF
xE
0D
zC
xB
0A
z@
x?
0>
z=
x<
0;
z:
x9
08
z7
x6
05
b0 4
b11 3
02
01
b1 0
0/
0.
b0 -
0,
bx +
x*
bx0 )
bx0 (
x'
bx &
bx %
bx $
bx #
bx "
bx !
$end
#1
0v#
0s#
bx00 )
bx00 f
bx00 (
bx00 l
b0 {
b0 J"
b0 w"
b0 F#
b0 |
b0 *"
b0 5"
b0 @"
06
bx0x i
bx0x n
b0 '"
b0 ""
0("
b0 $"
b0 K"
b0 #"
b0 )"
0&"
b0 %"
b0 +"
b0 2"
b0 -"
03"
b0 /"
b0 W"
b0 ."
b0 4"
01"
b0 0"
b0 6"
b0 ="
b0 8"
0>"
b0 :"
b0 b"
b0 9"
b0 ?"
0<"
b0 ;"
b0 A"
b0 H"
b0 C"
0I"
b0 E"
b0 m"
b0 D"
0G"
b0 !
b0 F"
b0 T"
b0 O"
0U"
b0 Q"
b0 x"
b0 P"
b0 V"
0S"
b0 R"
b0 X"
b0 _"
b0 Z"
0`"
b0 \"
b0 &#
b0 ["
b0 a"
0^"
b0 ]"
b0 c"
b0 j"
b0 e"
0k"
b0 g"
b0 1#
b0 f"
b0 l"
0i"
b0 h"
b0 n"
b0 u"
b0 p"
0v"
b0 r"
b0 <#
b0 q"
0t"
b0 "
b0 s"
b0 ##
b0 |"
0$#
b0 ~"
b0 G#
b0 }"
b0 %#
0"#
b0 !#
b0 '#
b0 .#
b0 )#
0/#
b0 +#
b0 S#
b0 *#
b0 0#
0-#
b0 ,#
b0 2#
b0 9#
b0 4#
0:#
b0 6#
b0 ^#
b0 5#
b0 ;#
08#
b0 7#
b0 =#
b0 D#
b0 ?#
0E#
b0 A#
b0 i#
b0 @#
0C#
b0 #
b0 B#
b0 P#
b0 K#
0Q#
b0 M#
b0 L#
b0 R#
0O#
b0 N#
b0 T#
b0 [#
b0 V#
0\#
b0 X#
b0 W#
b0 ]#
0Z#
b0 Y#
b0 _#
b0 f#
b0 a#
0g#
b0 c#
b0 b#
b0 h#
0e#
b0 d#
b0 j#
b0 q#
b0 l#
0r#
b0 n#
b0 m#
b0 %
b0 p
0p#
b0 $
b0 o#
b0 m
0*
b0 &
b0 k
b0 q
b0 w#
b0 h
0'
b0 +
b0 g
b0 r
b0 t#
0u
0t
b1 3
b111 z
1,
#2
0,
#3
0!"
1e
1j
0o
b110 v
b100 w
b1 x
b0 y
bx001 (
bx001 l
bx001 )
bx001 f
b0 3
bx0 s
bx00x n
bx00x i
0B
09
b111 z
1,
#4
0,
#5
0N"
0,"
b11 )
b11 f
b11 (
b11 l
b0 y
b100 w
b1 x
b110 v
b101 {
b100 |
0<
0E
0N
b1x i
b1x n
x1"
x<"
xG"
xS"
x^"
xi"
xt"
x"#
x-#
x8#
xC#
xO#
xZ#
xe#
bx %
bx p
xp#
b1 m
b1 &
b1 k
b1 q
b1 w#
b1 h
b1 +
b1 g
b1 r
b1 t#
bx00 s
12
11
b111 z
1,
#6
0,
#7
0{"
0Y"
07"
b0 y
b100 w
b1 x
b110 v
b111 (
b111 l
b111 )
b111 f
bx000 s
b10 h
b10 +
b10 g
b10 r
b10 t#
b10 m
b10 &
b10 k
b10 q
b10 w#
xr#
xg#
x\#
xE#
x:#
x/#
xv"
xk"
x`"
0S"
xI"
x>"
01"
b10100 '"
b100 $"
b100 K"
b101 #"
b101 )"
b11x n
b11x i
0Z
0Q
0H
0?
b1000 *"
b110 |
b110 J"
b111 {
b111 z
1,
#8
0,
#9
0J#
0(#
0d"
0B"
b1111 )
b1111 f
b1111 (
b1111 l
b0 y
b100 w
b1 x
b110 v
b100 {
b1 J"
b1 w"
b1001 |
b10 *"
0K
0T
0]
b111x i
b111x n
b111110 '"
b110 $"
b110 K"
b111 #"
b111 )"
b101000 2"
b1000 /"
b1000 W"
b101 ."
b101 4"
0>"
b11000 T"
b100 Q"
b100 x"
b110 P"
b110 V"
0`"
0"#
b11 m
b11 &
b11 k
b11 q
b11 w#
b11 h
b11 +
b11 g
b11 r
b11 t#
bx0000 s
b111 z
1,
#10
0,
#11
0U#
03#
0o"
b0 y
b100 w
b1 x
b110 v
bx00000 s
b100 h
b100 +
b100 g
b100 r
b100 t#
b100 m
b100 &
b100 k
b100 q
b100 w#
0O#
0/#
b100 ##
b100 ~"
b100 G#
b1 }"
b1 %#
b110000 _"
0^"
b1000 \"
b1000 &#
b110 ["
b110 a"
b11110 T"
b110 Q"
b110 x"
b1 P"
b1 V"
0<"
b101 9"
b101 ?"
b110110 2"
b10 /"
b10 W"
b111 ."
b111 4"
b1100010 '"
b1001 $"
b1001 K"
b100 #"
b100 )"
0`
0W
b1 @"
b10 5"
b11 *"
b110 |
b100 F#
b1001 J"
b1001 {
b111 z
1,
#12
0,
#13
0`#
0>#
b0 y
b100 w
b1 x
b110 v
b101 {
b111 J"
b110 F#
b0 |
b101 5"
b110 @"
0c
b10011000 '"
b110 $"
b110 K"
b1001 #"
b1001 )"
b1000010 2"
b11 /"
b11 W"
b100 ."
b100 4"
b1110 ="
b10 :"
b10 b"
b111 9"
b111 ?"
b101 H"
0I"
b1 E"
b1 m"
b101 D"
b1101111 T"
b1001 Q"
b1001 x"
b1001 P"
b1001 V"
b110010 _"
b10 \"
b10 &#
b1 ["
b1 a"
0k"
b110 f"
b110 l"
b1010 ##
b110 ~"
b110 G#
b1000 .#
0-#
b1000 +#
b1000 S#
b1 *#
b1 0#
b10000 P#
b100 M#
b100 L#
b100 R#
0\#
b101 m
b101 &
b101 k
b101 q
b101 w#
b101 h
b101 +
b101 g
b101 r
b101 t#
bx000000 s
b111 z
1,
#14
0,
#15
0k#
b0 y
b100 w
b1 x
b110 v
b0 s
b110 h
b110 +
b110 g
b110 r
b110 t#
b110 m
b110 &
b110 k
b110 q
b110 w#
b100000 [#
0Z#
b1000 X#
b100 W#
b100 ]#
b110100 P#
b110 M#
b110 L#
b110 R#
0:#
b1 5#
b1 ;#
b1010 .#
b10 +#
b10 S#
b10011 ##
b1001 ~"
b1001 G#
b110 u"
b1 r"
b1 <#
b110 q"
b10 j"
0i"
b10 g"
b10 1#
b1 f"
b1 l"
b1001101 _"
b11 \"
b11 &#
b1001 ["
b1001 a"
b10011001 T"
b110 Q"
b110 x"
b111 P"
b111 V"
b101111 H"
bx0 %
bx0 p
0G"
b110 E"
b110 m"
b111 D"
b100010 ="
b101 :"
b101 b"
b100 9"
b100 ?"
b1011101 2"
b1001 ."
b1001 4"
b0 $"
b0 K"
b101 #"
b101 )"
b0 @"
b111 5"
b100 *"
b10 |
b1 F#
b1001 w"
b100 J"
b1001 {
b111 z
1,
#16
0,
#17
1v#
1s#
b11 {
b0 J"
b11 w"
b1001 F#
b1 |
b1 *"
b100 5"
b101 @"
b10101010 '"
b10 $"
b10 K"
b1001 #"
b1001 )"
b1110001 2"
b100 /"
b100 W"
b101 ."
b101 4"
b1100001 ="
b111 :"
b111 b"
b1001 9"
b1001 ?"
b0 E"
b0 m"
b100 D"
b0 Q"
b0 x"
b100 P"
b100 V"
b1100010 _"
b111 ["
b111 a"
b101111 j"
b101 g"
b101 1#
b1001 f"
b1001 l"
b1100 u"
0v"
b110 r"
b110 <#
b1 q"
b1001001 ##
b110 ~"
b110 G#
b1001 }"
b1001 %#
b1101 .#
b11 +#
b11 S#
b10 9#
08#
b10 6#
b10 ^#
b1 D#
b1 A#
b1 i#
b1 @#
b111101 P#
b1001 M#
b1 L#
b1 R#
b101100 [#
b10 X#
b110 W#
b110 ]#
0g#
b100 b#
b100 h#
b111 m
b111 &
b111 k
b111 q
b111 w#
b111 h
b111 +
b111 g
b111 r
b111 t#
b10 0
b111 z
1,
#18
0,
#19
0s#
0v#
15
18
1;
1>
1A
1D
1G
1J
1M
1P
1S
1V
1Y
1\
1_
1b
b1 4
1t
b0 h
b0 +
b0 g
b0 r
b0 t#
1*
b1000 m
b0 &
b0 k
b0 q
b0 w#
b100 q#
b1 n#
b100 m#
b1100 f#
0e#
b10 c#
b110 b#
b110 h#
b101111 [#
b11 X#
b1 W#
b1 ]#
b1110011 P#
b110 M#
b1001 L#
b1001 R#
b111 D#
0E#
b110 A#
b110 i#
b111 9#
b101 6#
b101 ^#
b101000 .#
b1001 *#
b1001 0#
b0 ~"
b0 G#
b11 }"
b11 %#
bx00 %
bx00 p
0t"
b0 r"
b0 <#
b1001 q"
b1100000 j"
b111 g"
b111 1#
b111 f"
b111 l"
b1110010 _"
b100 \"
b100 &#
b100 ["
b100 a"
b10 Q"
b10 x"
b0 P"
b0 V"
b1011100 H"
b101 E"
b101 m"
b1001 D"
b1110101 ="
b100 :"
b100 b"
b101 9"
b101 ?"
b1111010 2"
b1 /"
b1 W"
b1001 ."
b1001 4"
b10101101 '"
b1 $"
b1 K"
b11 #"
b11 )"
b111 @"
b0 5"
b100 |
b110 F#
b0 w"
b101 J"
b10 {
b111 z
1,
#20
0,
